…
To remove missing observations, simply use negation: `filter(!is.na(height))`. Try this yourself now.

### 2) `dplyr::arrange()`

We use `arrange()` when we want to (re)order data based on row values. For example, say we want to sort the characters from youngest to oldest.


```r
starwars %>% 
  arrange(birth_year)
```

```
## # A tibble: 87 x 13
##    name  height  mass hair_color skin_color eye_color birth_year gender
##    <chr>  <int> <dbl> <chr>      <chr>      <chr>          <dbl> <chr> 
##  1 Wick…     88  20   brown      brown      brown            8   male  
##  2 IG-88    200 140   none       metal      red             15   none  
##  3 Luke…    172  77   blond      fair       blue            19   male  
##  4 Leia…    150  49   brown      light      brown           19   female
##  5 Wedg…    170  77   brown      fair       hazel           21   male  
##  6 Plo …    188  80   none       orange     black           22   male  
##  7 Bigg…    183  84   black      light      brown           24   male  
##  8 Han …    180  80   brown      fair       brown           29   male  
##  9 Land…    177  79   black      dark       brown           31   male  
## 10 Boba…    183  78.2 black      fair       brown           31.5 male  
## # … with 77 more rows, and 5 more variables: homeworld <chr>,
## #   species <chr>, films <list>, vehicles <list>, starships <list>
```

(Note that arranging on a character-based column --- i.e. strings --- will sort the data alphabetically. Try this yourself by arranging according to the "name" column.)

We can also arrange items in descending order using `arrange(desc())`.

```r
starwars %>% 
  arrange(desc(birth_year))
```

```
## # A tibble: 87 x 13
##    name  height  mass hair_color skin_color eye_color birth_year gender
##    <chr>  <int> <dbl> <chr>      <chr>      <chr>          <dbl> <chr> 
##  1 Yoda      66    17 white      green      brown            896 male  
##  2 Jabb…    175  1358 <NA>       green-tan… orange           600 herma…
##  3 Chew…    228   112 brown      unknown    blue             200 male  
##  4 C-3PO    167    75 <NA>       gold       yellow           112 <NA>  
##  5 Dooku    193    80 white      fair       brown            102 male  
##  6 Qui-…    193    89 brown      fair       blue              92 male  
##  7 Ki-A…    198    82 white      pale       yellow            92 male  
##  8 Fini…    170    NA blond      fair       blue              91 male  
##  9 Palp…    170    75 grey       pale       yellow            82 male  
## 10 Clie…    183    NA brown      fair       blue              82 male  
## # … with 77 more rows, and 5 more variables: homeworld <chr>,
## #   species <chr>, films <list>, vehicles <list>, starships <list>
```

### 3) `dplyr::select()`

So far we have been focusong on row-based operations. However, we use `select()` to subset data based on the columns. To select multiple columns, you can use commas. (Or, if you are selecting consecutive columns, you can also use the "first_column:last_column" format). 

```r
starwars %>% 
  select(name:skin_color, species)
```

```
## # A tibble: 87 x 6
##    name               height  mass hair_color    skin_color  species
##    <chr>               <int> <dbl> <chr>         <chr>       <chr>  
##  1 Luke Skywalker        172    77 blond         fair        Human  
##  2 C-3PO                 167    75 <NA>          gold        Droid  
##  3 R2-D2                  96    32 <NA>          white, blue Droid  
##  4 Darth Vader           202   136 none          white       Human  
##  5 Leia Organa           150    49 brown         light       Human  
##  6 Owen Lars             178   120 brown, grey   light       Human  
##  7 Beru Whitesun lars    165    75 brown         light       Human  
##  8 R5-D4                  97    32 <NA>          white, red  Droid  
##  9 Biggs Darklighter     183    84 black         light       Human  
## 10 Obi-Wan Kenobi        182    77 auburn, white fair        Human  
## # … with 77 more rows
```

You can deselect a column with a minus sign (i.e. "-"). Note, however, that deselecting multiple columns would require wrapping them in concatenation parenthesese: `select(..., -c(col1, col2, etc))`.


```r
starwars %>% 
  select(name:skin_color, species, -height)
```

```
## # A tibble: 87 x 5
##    name                mass hair_color    skin_color  species
##    <chr>              <dbl> <chr>         <chr>       <chr>  
##  1 Luke Skywalker        77 blond         fair        Human  
##  2 C-3PO                 75 <NA>          gold        Droid  
##  3 R2-D2                 32 <NA>          white, blue Droid  
##  4 Darth Vader          136 none          white       Human  
##  5 Leia Organa           49 brown         light       Human  
##  6 Owen Lars            120 brown, grey   light       Human  
##  7 Beru Whitesun lars    75 brown         light       Human  
##  8 R5-D4                 32 <NA>          white, red  Droid  
##  9 Biggs Darklighter     84 black         light       Human  
## 10 Obi-Wan Kenobi        77 auburn, white fair        Human  
## # … with 77 more rows
```

You can also rename some (or all) of your selected variables in place.^[A related command is "rename", which is useful if you just want to rename columns without changing the selection. See `?rename`.]  

```r
starwars %>%
  select(alias=name, crib=homeworld, sex=gender) 
```

```
## # A tibble: 87 x 3
##    alias              crib     sex   
##    <chr>              <chr>    <chr> 
##  1 Luke Skywalker     Tatooine male  
##  2 C-3PO              Tatooine <NA>  
##  3 R2-D2              Naboo    <NA>  
##  4 Darth Vader        Tatooine male  
##  5 Leia Organa        Alderaan female
##  6 Owen Lars          Tatooine male  
##  7 Beru Whitesun lars Tatooine female
##  8 R5-D4              Tatooine <NA>  
##  9 Biggs Darklighter  Tatooine male  
## 10 Obi-Wan Kenobi     Stewjon  male  
## # … with 77 more rows
```

The `select(contains(PATTERN))` option provides a nice shortcut in relevant cases.

```r
starwars %>% 
  select(name, contains("color"))
```

```
## # A tibble: 87 x 4
##    name               hair_color    skin_color  eye_color
##    <chr>              <chr>         <chr>       <chr>    
##  1 Luke Skywalker     blond         fair        blue     
##  2 C-3PO              <NA>          gold        yellow   
##  3 R2-D2              <NA>          white, blue red      
##  4 Darth Vader        none          white       yellow   
##  5 Leia Organa        brown         light       brown    
##  6 Owen Lars          brown, grey   light       blue     
##  7 Beru Whitesun lars brown         light       blue     
##  8 R5-D4              <NA>          white, red  red      
##  9 Biggs Darklighter  black         light       brown    
## 10 Obi-Wan Kenobi     auburn, white fair        blue-gray
## # … with 77 more rows
```

The `select(..., everything())` option is another useful shortcut if you want to bring some variable(s) to the "front" of your dataset.


```r
starwars %>% 
  select(species, homeworld, everything())
```

```
## # A tibble: 87 x 13
##    species homeworld name  height  mass hair_color skin_color eye_color
##    <chr>   <chr>     <chr>  <int> <dbl> <chr>      <chr>      <chr>    
##  1 Human   Tatooine  Luke…    172    77 blond      fair       blue     
##  2 Droid   Tatooine  C-3PO    167    75 <NA>       gold       yellow   
##  3 Droid   Naboo     R2-D2     96    32 <NA>       white, bl… red      
##  4 Human   Tatooine  Dart…    202   136 none       white      yellow   
##  5 Human   Alderaan  Leia…    150    49 brown      light      brown    
##  6 Human   Tatooine  Owen…    178   120 brown, gr… light      blue     
##  7 Human   Tatooine  Beru…    165    75 brown      light      blue     
##  8 Droid   Tatooine  R5-D4     97    32 <NA>       white, red red      
##  9 Human   Tatooine  Bigg…    183    84 black      light      brown    
## 10 Human   Stewjon   Obi-…    182    77 auburn, w… fair       blue-gray
## # … with 77 more rows, and 5 more variables: birth_year <dbl>,
## #   gender <chr>, films <list>, vehicles <list>, starships <list>
```


### `4) dplyr::mutate()`

We use `mutate()` to create new columns (i.e. variables). You can either create new columns from scratch, or (more commonly) as transformations of existing columns.

```r
starwars %>% 
  select(name, birth_year) %>%
  mutate(dog_years = birth_year * 7) %>%
  mutate(comment = paste0(name, " is ", dog_years, " in dog years."))
```

```
## # A tibble: 87 x 4
##    name             birth_year dog_years comment                           
##    <chr>                 <dbl>     <dbl> <chr>                             
##  1 Luke Skywalker         19        133  Luke Skywalker is 133 in dog year…
##  2 C-3PO                 112        784  C-3PO is 784 in dog years.        
##  3 R2-D2                  33        231  R2-D2 is 231 in dog years.        
##  4 Darth Vader            41.9      293. Darth Vader is 293.3 in dog years.
##  5 Leia Organa            19        133  Leia Organa is 133 in dog years.  
##  6 Owen Lars              52        364  Owen Lars is 364 in dog years.    
##  7 Beru Whitesun l…       47        329  Beru Whitesun lars is 329 in dog …
##  8 R5-D4                  NA         NA  R5-D4 is NA in dog years.         
##  9 Biggs Darklight…       24        168  Biggs Darklighter is 168 in dog y…
## 10 Obi-Wan Kenobi         57        399  Obi-Wan Kenobi is 399 in dog year…
## # … with 77 more rows
```

Note that `mutate()` is order aware. So you can chain multiple mutations in a single call, even if a a latter mutation relies on an earlier one.

```r
starwars %>% 
  select(name, birth_year) %>%
  mutate(
    dog_years = birth_year * 7, ## Separate with a comma
    comment = paste0(name, " is ", dog_years, " in dog years.")
    )
```

```
## # A tibble: 87 x 4
##    name             birth_year dog_years comment                           
##    <chr>                 <dbl>     <dbl> <chr>                             
##  1 Luke Skywalker         19        133  Luke Skywalker is 133 in dog year…
##  2 C-3PO                 112        784  C-3PO is 784 in dog years.        
##  3 R2-D2                  33        231  R2-D2 is 231 in dog years.        
##  4 Darth Vader            41.9      293. Darth Vader is 293.3 in dog years.
##  5 Leia Organa            19        133  Leia Organa is 133 in dog years.  
##  6 Owen Lars              52        364  Owen Lars is 364 in dog years.    
##  7 Beru Whitesun l…       47        329  Beru Whitesun lars is 329 in dog …
##  8 R5-D4                  NA         NA  R5-D4 is NA in dog years.         
##  9 Biggs Darklight…       24        168  Biggs Darklighter is 168 in dog y…
## 10 Obi-Wan Kenobi         57        399  Obi-Wan Kenobi is 399 in dog year…
## # … with 77 more rows
```
…
Lastly, there are "scoped" variants of `mutate()` that work on a subset of variables.
- `mutate_all()` affects every variable
- `mutate_at()` affects named or selected variables
- `mutate_if()` affects variables that meet some criteria (e.g. are numeric)

See `?mutate_all` for more details and examples, but here's a silly example using the latter:


```r
starwars %>% select(name:eye_color) %>% mutate_if(is.character, toupper)
```

```
## # A tibble: 87 x 6
##    name               height  mass hair_color    skin_color  eye_color
##    <chr>               <int> <dbl> <chr>         <chr>       <chr>    
##  1 LUKE SKYWALKER        172    77 BLOND         FAIR        BLUE     
##  2 C-3PO                 167    75 <NA>          GOLD        YELLOW   
##  3 R2-D2                  96    32 <NA>          WHITE, BLUE RED      
##  4 DARTH VADER           202   136 NONE          WHITE       YELLOW   
##  5 LEIA ORGANA           150    49 BROWN         LIGHT       BROWN    
##  6 OWEN LARS             178   120 BROWN, GREY   LIGHT       BLUE     
##  7 BERU WHITESUN LARS    165    75 BROWN         LIGHT       BLUE     
##  8 R5-D4                  97    32 <NA>          WHITE, RED  RED      
##  9 BIGGS DARKLIGHTER     183    84 BLACK         LIGHT       BROWN    
## 10 OBI-WAN KENOBI        182    77 AUBURN, WHITE FAIR        BLUE-GRAY
## # … with 77 more rows
```


### `5) dplyr::summarise()`

We use `summarise()` (or `summarize()`) when we want collapse multiple observations (i.e. rows) down into a single observation. This is particularly useful in combination with the `group_by()` command.

```r
starwars %>% 
  group_by(species, gender) %>% 
  summarise(mean_height = mean(height, na.rm = T))
```

```
## # A tibble: 43 x 3
## # Groups:   species [?]
##    species   gender mean_height
##    <chr>     <chr>        <dbl>
##  1 Aleena    male            79
##  2 Besalisk  male           198
##  3 Cerean    male           198
##  4 Chagrian  male           196
##  5 Clawdite  female         168
##  6 Droid     none           200
##  7 Droid     <NA>           120
##  8 Dug       male           112
##  9 Ewok      male            88
## 10 Geonosian male           183
## # … with 33 more rows
```
…
The "scoped" variants that we saw earlier also work with `summarise()`
- `summarise_all()` affects every variable
- `summarise_at()` affects named or selected variables
- `summarise_if()` affects variables that meet some criteria (e.g. are numeric)

Again, see `?summarise_at` for more details and examples. However, here's an example using the latter:


```r
starwars %>% group_by(species, gender) %>% summarise_if(is.numeric, mean, na.rm=T)
```

```
## # A tibble: 43 x 5
## # Groups:   species [?]
##    species   gender height  mass birth_year
##    <chr>     <chr>   <dbl> <dbl>      <dbl>
##  1 Aleena    male       79  15        NaN  
##  2 Besalisk  male      198 102        NaN  
##  3 Cerean    male      198  82         92  
##  4 Chagrian  male      196 NaN        NaN  
##  5 Clawdite  female    168  55        NaN  
##  6 Droid     none      200 140         15  
##  7 Droid     <NA>      120  46.3       72.5
##  8 Dug       male      112  40        NaN  
##  9 Ewok      male       88  20          8  
## 10 Geonosian male      183  80        NaN  
## # … with 33 more rows
```

And one more, just to show how we can add flexibility to our scoped calls. This time, I going to use the `funs(suffix=FUNCTION)` option, which will append a helpful suffix to our summarised variables. (You can also use it to implement scoped transformations based on your own functions.)


```r
starwars %>% group_by(species, gender) %>% summarise_if(is.numeric, funs(avg=mean), na.rm=T)
```

```
## # A tibble: 43 x 5
## # Groups:   species [?]
##    species   gender height_avg mass_avg birth_year_avg
##    <chr>     <chr>       <dbl>    <dbl>          <dbl>
##  1 Aleena    male           79     15            NaN  
##  2 Besalisk  male          198    102            NaN  
##  3 Cerean    male          198     82             92  
##  4 Chagrian  male          196    NaN            NaN  
##  5 Clawdite  female        168     55            NaN  
##  6 Droid     none          200    140             15  
##  7 Droid     <NA>          120     46.3           72.5
##  8 Dug       male          112     40            NaN  
##  9 Ewok      male           88     20              8  
## 10 Geonosian male          183     80            NaN  
## # … with 33 more rows
```
…
For the simple examples that I'm going to show here, we'll need some data sets that come bundled with the [nycflights13 package](http://github.com/hadley/nycflights13). Let's load it now and quickly inspect the `flights` and `planes` datasets.


```r
library(nycflights13)
flights 
```

```
## # A tibble: 336,776 x 19
##     year month   day dep_time sched_dep_time dep_delay arr_time
##    <int> <int> <int>    <int>          <int>     <dbl>    <int>
##  1  2013     1     1      517            515         2      830
##  2  2013     1     1      533            529         4      850
##  3  2013     1     1      542            540         2      923
##  4  2013     1     1      544            545        -1     1004
##  5  2013     1     1      554            600        -6      812
##  6  2013     1     1      554            558        -4      740
##  7  2013     1     1      555            600        -5      913
##  8  2013     1     1      557            600        -3      709
##  9  2013     1     1      557            600        -3      838
## 10  2013     1     1      558            600        -2      753
## # … with 336,766 more rows, and 12 more variables: sched_arr_time <int>,
## #   arr_delay <dbl>, carrier <chr>, flight <int>, tailnum <chr>,
## #   origin <chr>, dest <chr>, air_time <dbl>, distance <dbl>, hour <dbl>,
## #   minute <dbl>, time_hour <dttm>
```

```r
planes
```

```
## # A tibble: 3,322 x 9
##    tailnum  year type       manufacturer  model  engines seats speed engine
##    <chr>   <int> <chr>      <chr>         <chr>    <int> <int> <int> <chr> 
##  1 N10156   2004 Fixed win… EMBRAER       EMB-1…       2    55    NA Turbo…
##  2 N102UW   1998 Fixed win… AIRBUS INDUS… A320-…       2   182    NA Turbo…
##  3 N103US   1999 Fixed win… AIRBUS INDUS… A320-…       2   182    NA Turbo…
##  4 N104UW   1999 Fixed win… AIRBUS INDUS… A320-…       2   182    NA Turbo…
##  5 N10575   2002 Fixed win… EMBRAER       EMB-1…       2    55    NA Turbo…
##  6 N105UW   1999 Fixed win… AIRBUS INDUS… A320-…       2   182    NA Turbo…
##  7 N107US   1999 Fixed win… AIRBUS INDUS… A320-…       2   182    NA Turbo…
##  8 N108UW   1999 Fixed win… AIRBUS INDUS… A320-…       2   182    NA Turbo…
##  9 N109UW   1999 Fixed win… AIRBUS INDUS… A320-…       2   182    NA Turbo…
## 10 N110UW   1999 Fixed win… AIRBUS INDUS… A320-…       2   182    NA Turbo…
## # … with 3,312 more rows
```
Let's perform a [left join](https://stat545.com/bit001_dplyr-cheatsheet.html#left_joinsuperheroes-publishers) on the flights and planes datasets. I'm also going subset columns after the join using `select()`, but only to keep the columns readable on this page.


```r
# flights %>% left_join(planes) ## works too
left_join(flights, planes) %>%
  select(year, month, day, dep_time, arr_time, carrier, flight, tailnum, type, model)
```

```
## Joining, by = c("year", "tailnum")
```

```
## # A tibble: 336,776 x 10
##     year month   day dep_time arr_time carrier flight tailnum type  model
##    <int> <int> <int>    <int>    <int> <chr>    <int> <chr>   <chr> <chr>
##  1  2013     1     1      517      830 UA        1545 N14228  <NA>  <NA> 
##  2  2013     1     1      533      850 UA        1714 N24211  <NA>  <NA> 
##  3  2013     1     1      542      923 AA        1141 N619AA  <NA>  <NA> 
##  4  2013     1     1      544     1004 B6         725 N804JB  <NA>  <NA> 
##  5  2013     1     1      554      812 DL         461 N668DN  <NA>  <NA> 
##  6  2013     1     1      554      740 UA        1696 N39463  <NA>  <NA> 
##  7  2013     1     1      555      913 B6         507 N516JB  <NA>  <NA> 
##  8  2013     1     1      557      709 EV        5708 N829AS  <NA>  <NA> 
##  9  2013     1     1      557      838 B6          79 N593JB  <NA>  <NA> 
## 10  2013     1     1      558      753 AA         301 N3ALAA  <NA>  <NA> 
## # … with 336,766 more rows
```
…
