…
Now that we've located the API endpoint, let's read the data into R. We'll do so using the `fromJSON()` function from the excellent [jsonlite package](https://cran.r-project.org/web/packages/jsonlite/index.html). This will automatically coerce the JSON array into a regular R data frame. However, I'll go that little bit further and convert it into a tibble, since the output is nicer to work with.


```r
library(jsonlite)
nyc_trees <- 
  fromJSON("https://data.cityofnewyork.us/resource/nwxe-4ae8.json") %>%
  as_tibble()
nyc_trees
```

```
## # A tibble: 1,000 x 45
##    address bbl   bin   block_id boro_ct borocode boroname brch_light
##    <chr>   <chr> <chr> <chr>    <chr>   <chr>    <chr>    <chr>     
##  1 108-00… 4022… 4052… 348711   4073900 4        Queens   No        
##  2 147-07… 4044… 4101… 315986   4097300 4        Queens   No        
##  3 390 MO… 3028… 3338… 218365   3044900 3        Brooklyn No        
##  4 1027 G… 3029… 3338… 217969   3044900 3        Brooklyn No        
##  5 603 6 … 3010… 3025… 223043   3016500 3        Brooklyn No        
##  6 8 COLU… 1011… 1076… 106099   1014500 1        Manhatt… No        
##  7 120 WE… 1011… 1076… 106099   1014500 1        Manhatt… No        
##  8 311 WE… 1010… 1086… 103940   1012700 1        Manhatt… No        
##  9 65 JER… <NA>  <NA>  407443   5006400 5        Staten … No        
## 10 638 AV… 3072… 3320… 207508   3037402 3        Brooklyn No        
## # … with 990 more rows, and 37 more variables: brch_other <chr>,
## #   brch_shoe <chr>, cb_num <chr>, census_tract <chr>, cncldist <chr>,
## #   council_district <chr>, created_at <chr>, curb_loc <chr>,
## #   guards <chr>, health <chr>, latitude <chr>, longitude <chr>,
## #   nta <chr>, nta_name <chr>, problems <chr>, root_grate <chr>,
## #   root_other <chr>, root_stone <chr>, sidewalk <chr>, spc_common <chr>,
## #   spc_latin <chr>, st_assem <chr>, st_senate <chr>, state <chr>,
## #   status <chr>, steward <chr>, stump_diam <chr>, tree_dbh <chr>,
## #   tree_id <chr>, trnk_light <chr>, trnk_other <chr>, trunk_wire <chr>,
…
```r
fred <-
  fred %>% 
  httr::content("text") %>%
  jsonlite::fromJSON() %>%
  purrr::pluck("observations") %>% ## Extract the "$observations" list element
  # .$observations %>% ## I could also have used this
  # magrittr::extract("observations") %>% ## Or this
  as_tibble() ## Just for nice formatting
fred
```

```
## # A tibble: 89 x 4
##    realtime_start realtime_end date       value   
##    <chr>          <chr>        <chr>      <chr>   
##  1 2019-02-17     2019-02-17   1929-01-01 1120.076
##  2 2019-02-17     2019-02-17   1930-01-01 1025.091
##  3 2019-02-17     2019-02-17   1931-01-01 958.378 
##  4 2019-02-17     2019-02-17   1932-01-01 834.291 
##  5 2019-02-17     2019-02-17   1933-01-01 823.156 
##  6 2019-02-17     2019-02-17   1934-01-01 911.019 
##  7 2019-02-17     2019-02-17   1935-01-01 992.537 
##  8 2019-02-17     2019-02-17   1936-01-01 1118.944
##  9 2019-02-17     2019-02-17   1937-01-01 1177.572
## 10 2019-02-17     2019-02-17   1938-01-01 1138.989
## # … with 79 more rows
```
…
rankings <-
  bind_cols(
    rugby$entries$team,
    rugby$entries %>% select(matches:previousPos)
  ) %>%
  clean_names() %>%
  select(-c(id, alt_id, annotations)) %>% ## These columns aren't adding much of interest
  select(pos, pts, everything()) %>% ## Reorder remaining columns
  as_tibble() ## "Enhanced" tidyverse version of a data frame
rankings
```

```
## # A tibble: 105 x 7
##      pos   pts name         abbreviation matches previous_pts previous_pos
##    <int> <dbl> <chr>        <chr>          <int>        <dbl>        <int>
##  1     1  92.5 New Zealand  NZL              209         92.5            1
##  2     2  91.2 Ireland      IRE              182         91.2            2
##  3     3  87.2 Wales        WAL              196         87.2            3
##  4     4  86.2 England      ENG              189         86.2            4
##  5     5  84.6 South Africa RSA              200         84.6            5
##  6     6  82.4 Australia    AUS              217         82.4            6
##  7     7  81.8 Scotland     SCO              177         81.8            7
##  8     8  77.9 Fiji         FJI              111         77.9            8
##  9     9  77.3 France       FRA              187         77.3            9
## 10    10  77.0 Argentina    ARG              182         77.0           10
## # … with 95 more rows
```
…
Finally, we can now iterate (i.e. loop) over our `dates` vector, by plugging the values sequentially into our `rugby_scrape` function. There are a variety of ways to iterate in R, but I'm going to use an `lapply()` call below.^[Again, don't worry too much about this now. We'll cover iteration and programming in more depth in a later lecture.] We'll then bind everything into a single data frame using `dplyr::bind_rows()` and name the resulting object `rankings_history`.


```r
rankings_history <-
  lapply(dates, rugby_scrape) %>% ## Run the iteration
  bind_rows() ## Bind the resulting list of data frames into a single data frame
rankings_history
```

```
## # A tibble: 1,569 x 8
##    date         pos   pts name  abbreviation matches previous_pts
##    <date>     <int> <dbl> <chr> <chr>          <int>        <dbl>
##  1 2003-12-29     1  94.0 Engl… ENG               17         92.1
##  2 2003-12-29     2  90.1 New … NZL               17         88.2
##  3 2003-12-29     3  86.6 Aust… AUS               17         88.4
##  4 2003-12-29     4  82.7 Fran… FRA               17         84.7
##  5 2003-12-29     5  81.2 Sout… RSA               15         81.2
##  6 2003-12-29     6  80.5 Irel… IRE               15         80.5
##  7 2003-12-29     7  78.0 Arge… ARG               14         78.0
##  8 2003-12-29     8  76.9 Wales WAL               15         76.9
##  9 2003-12-29     9  76.4 Scot… SCO               15         76.4
## 10 2003-12-29    10  73.5 Samoa SAM               14         73.5
## # … with 1,559 more rows, and 1 more variable: previous_pos <int>
```
…
