Regression analysis in R
…
Already used: tidyverse, hrbrthemes, listviewer

The broom package was bundled with the rest of tidyverse and sandwich should get installed as a dependency of several of the above packages. Still, a convenient way to install (if necessary) and load everything is by running the below code chunk. Ill also go ahead and set my preferred ggplot2 theme for the rest of this document.

if (!require("pacman")) install.packages("pacman")
pacman::p_load(tidyverse, broom, hrbrthemes, plm, estimatr, sandwich, lmtest, AER, lfe, huxtable, margins)
theme_set(hrbrthemes::theme_ipsum())

While weve already loaded all of the required packages for today, Ill try to be as explicit about where a particular function is coming from, whenever I use it below.

Something else that I want to mention up front is that well mostly be working with the starwars data frame that weve already seen from previous lectures. Heres a quick reminder of what it looks like to refresh your memory.

starwars

## # A tibble: 87 x 13
##    name  height  mass hair_color skin_color eye_color birth_year gender
##    <chr>  <int> <dbl> <chr>      <chr>      <chr>          <dbl> <chr> 
##  1 Luke    172    77 blond      fair       blue            19   male  
##  2 C-3PO    167    75 <NA>       gold       yellow         112   <NA>  
##  3 R2-D2     96    32 <NA>       white, bl red             33   <NA>  
##  4 Dart    202   136 none       white      yellow          41.9 male  
##  5 Leia    150    49 brown      light      brown           19   female
##  6 Owen    178   120 brown, gr light      blue            52   male  
##  7 Beru    165    75 brown      light      blue            47   female
##  8 R5-D4     97    32 <NA>       white, red red             NA   <NA>  
##  9 Bigg    183    84 black      light      brown           24   male  
## 10 Obi-    182    77 auburn, w fair       blue-gray       57   male  
## #  with 77 more rows, and 5 more variables: homeworld <chr>,
## #   species <chr>, films <list>, vehicles <list>, starships <list>
…
Dummy variables as factors

Dummy variables are a core component of many regression models. However, these can be a pain to create in many statistical languages, since you first have to tabulate a whole new matrix of binary variables and then append it to the original data frame. In contrast, R has a much more convenient framework for creating and evaluating dummy variables in a regression. You simply specify the variable of interest as a factor.3

For this next section, it will be convenient to demonstrate using a subsample of the data that comprises only humans. Ill first create this humans data frame and then demonstrate the dummy-variables-as-factors approach.

humans <- 
  starwars %>% 
  filter(species=="Human") %>%
  mutate(gender_factored = as.factor(gender)) %>% ## create factored version of "gender"
  select(contains("gender"), everything())
humans

## # A tibble: 35 x 14
##    gender gender_factored name  height  mass hair_color skin_color
##    <chr>  <fct>           <chr>  <int> <dbl> <chr>      <chr>     
##  1 male   male            Luke    172    77 blond      fair      
##  2 male   male            Dart    202   136 none       white     
##  3 female female          Leia    150    49 brown      light     
##  4 male   male            Owen    178   120 brown, gr light     
##  5 female female          Beru    165    75 brown      light     
##  6 male   male            Bigg    183    84 black      light     
##  7 male   male            Obi-    182    77 auburn, w fair      
##  8 male   male            Anak    188    84 blond      fair      
##  9 male   male            Wilh    180    NA auburn, g fair      
## 10 male   male            Han     180    80 brown      fair      
## #  with 25 more rows, and 7 more variables: eye_color <chr>,
## #   birth_year <dbl>, homeworld <chr>, species <chr>, films <list>,
## #   vehicles <list>, starships <list>
…
