…
While we've already loaded all of the required packages for today, I'll try to be as explicit about where a particular function is coming from, whenever I use it below. 

Something else that I want to mention up front is that we'll mostly be working with the `starwars` data frame that we've already seen from previous lectures. Here's a quick reminder of what it looks like to refresh your memory.


```r
starwars
```

```
## # A tibble: 87 x 14
##    name  height  mass hair_color skin_color eye_color birth_year sex   gender
##    <chr>  <int> <dbl> <chr>      <chr>      <chr>          <dbl> <chr> <chr> 
##  1 Luke…    172    77 blond      fair       blue            19   male  mascu…
##  2 C-3PO    167    75 <NA>       gold       yellow         112   none  mascu…
##  3 R2-D2     96    32 <NA>       white, bl… red             33   none  mascu…
##  4 Dart…    202   136 none       white      yellow          41.9 male  mascu…
##  5 Leia…    150    49 brown      light      brown           19   fema… femin…
##  6 Owen…    178   120 brown, gr… light      blue            52   male  mascu…
##  7 Beru…    165    75 brown      light      blue            47   fema… femin…
##  8 R5-D4     97    32 <NA>       white, red red             NA   none  mascu…
##  9 Bigg…    183    84 black      light      brown           24   male  mascu…
## 10 Obi-…    182    77 auburn, w… fair       blue-gray       57   male  mascu…
## # … with 77 more rows, and 5 more variables: homeworld <chr>, species <chr>,
## #   films <list>, vehicles <list>, starships <list>
```
…
For the next few sections, it will prove convenient to demonstrate using a subsample of the starwars data that comprises only the human characters. Let's quickly create this new dataset before continuing. Note that I'm creating a factored (i.e. ordered) version of the "gender" variable, since I want to demonstrate some general principles about factors in the paragraphs that follow.


```r
humans = 
  starwars %>% 
  filter(species=="Human") %>%
  mutate(gender_factored = as.factor(gender)) %>% ## create factored version of "gender"
  select(contains("gender"), everything())
humans
```

```
## # A tibble: 35 x 15
##    gender gender_factored name  height  mass hair_color skin_color eye_color
##    <chr>  <fct>           <chr>  <int> <dbl> <chr>      <chr>      <chr>    
##  1 mascu… masculine       Luke…    172    77 blond      fair       blue     
##  2 mascu… masculine       Dart…    202   136 none       white      yellow   
##  3 femin… feminine        Leia…    150    49 brown      light      brown    
##  4 mascu… masculine       Owen…    178   120 brown, gr… light      blue     
##  5 femin… feminine        Beru…    165    75 brown      light      blue     
##  6 mascu… masculine       Bigg…    183    84 black      light      brown    
##  7 mascu… masculine       Obi-…    182    77 auburn, w… fair       blue-gray
##  8 mascu… masculine       Anak…    188    84 blond      fair       blue     
##  9 mascu… masculine       Wilh…    180    NA auburn, g… fair       blue     
## 10 mascu… masculine       Han …    180    80 brown      fair       brown    
## # … with 25 more rows, and 7 more variables: birth_year <dbl>, sex <chr>,
## #   homeworld <chr>, species <chr>, films <list>, vehicles <list>,
## #   starships <list>
```
…
```
## # A tibble: 48 x 13
##    state year    cpi population packs income   tax price  taxs rprice rincome
##    <fct> <fct> <dbl>      <dbl> <dbl>  <dbl> <dbl> <dbl> <dbl>  <dbl>   <dbl>
##  1 AL    1995   1.52    4262731 101.  8.39e7  40.5  158.  41.9   104.    12.9
##  2 AR    1995   1.52    2480121 111.  4.60e7  55.5  176.  63.9   115.    12.2
##  3 AZ    1995   1.52    4306908  72.0 8.89e7  65.3  199.  74.8   130.    13.5
##  4 CA    1995   1.52   31493524  56.9 7.71e8  61    211.  74.8   138.    16.1
##  5 CO    1995   1.52    3738061  82.6 9.29e7  44    167.  44     110.    16.3
##  6 CT    1995   1.52    3265293  79.5 1.04e8  74    218.  86.4   143.    21.0
##  7 DE    1995   1.52     718265 124.  1.82e7  48    166.  48     109.    16.7
##  8 FL    1995   1.52   14185403  93.1 3.34e8  57.9  188.  68.5   123.    15.4
##  9 GA    1995   1.52    7188538  97.5 1.60e8  36    157.  37.4   103.    14.6
## 10 IA    1995   1.52    2840860  92.4 6.02e7  60    191.  69.1   125.    13.9
## # … with 38 more rows, and 2 more variables: rtax <dbl>, tdiff <dbl>
```
…
