…
```r
## Case 2: Iterate over *all possible combinations* of x=1:5 and y=6:10
input_df2 <- expand.grid(x=1:5, y=6:10)
# input_df2 <- expand(input_df1, x, y) ## Also works
parent_func(input_df2)
```

```
## # A tibble: 25 x 3
##        x     y     z
##    <int> <int> <dbl>
##  1     1     6  7   
##  2     2     6  5.66
##  3     3     6  5.20
##  4     4     6  5   
##  5     5     6  4.92
##  6     1     7  8   
##  7     2     7  6.36
##  8     3     7  5.77
##  9     4     7  5.5 
## 10     5     7  5.37
## # … with 15 more rows
```
…
