…
```
## Warning: Missing values are always removed in SQL.
## Use `mean(x, na.rm = TRUE)` to silence this warning
## This warning is displayed only once per session.
```

```r
mean_dep_delay
```

```
## # A tibble: 366 x 4
##     YEAR MONTH DAY_OF_MONTH mean_delay
##    <int> <int>        <int>      <dbl>
##  1  2012     1            9      5.84 
##  2  2012     1           17      5.43 
##  3  2012     1           20     13.6  
##  4  2012     1           25      6.67 
##  5  2012     2            7      0.334
##  6  2012     2           29      7.74 
##  7  2012     3           11      9.37 
##  8  2012     4            1      6.58 
##  9  2012     4           11      2.48 
## 10  2012     4           16      5.69 
## # … with 356 more rows
```
…
