Data Science for Economists
…
This works incredibly quickly, but note that once again we are dealing with a lazy query. Just like we saw in our databases lecture, the mean_dep_delay object hasnt actually been created yet. At the moment it is just a pointer to a set of aspirational commands. Even if we printed the object name, then wed only get a preview of the object. (Confirm this for yourself.)

So how to do actually pull this data into our R environment? Well, again just like in the databases lecture we can use the dplyr::collect() function to execute the full set of commands and load the resulting object into R.

collected_mean_dep_delay <- collect(mean_dep_delay)

## Warning: Missing values are always removed in SQL.
## Use `mean(x, na.rm = TRUE)` to silence this warning
## This warning is displayed only once per session.

collected_mean_dep_delay

## # A tibble: 366 x 4
##     YEAR MONTH DAY_OF_MONTH mean_delay
##    <int> <int>        <int>      <dbl>
##  1  2012     1            9      5.84 
##  2  2012     1           17      5.43 
##  3  2012     1           20     13.6  
##  4  2012     1           25      6.67 
##  5  2012     2            7      0.334
##  6  2012     2           29      7.74 
##  7  2012     3           11      9.37 
##  8  2012     4            1      6.58 
##  9  2012     4           11      2.48 
## 10  2012     4           16      5.69 
## #  with 356 more rows
…
