…
```
## Simple feature collection with 2292 features and 5 fields (with 4 geometries empty)
## geometry type:  MULTIPOLYGON
## dimension:      XY
## bbox:           xmin: -124.7631 ymin: 41.99179 xmax: -116.4635 ymax: 49.00249
## epsg (SRID):    4269
## proj4string:    +proj=longlat +ellps=GRS80 +towgs84=0,0,0,0,0,0,0 +no_defs
## # A tibble: 2,292 x 6
##    GEOID  NAME       variable estimate   moe                       geometry
##    <chr>  <chr>      <chr>       <dbl> <dbl>             <MULTIPOLYGON [°]>
##  1 53001… Census Tr… DP04_01…      675    54 (((-118.9798 47.26171, -118.5…
##  2 53001… Census Tr… DP04_01…      885    91 (((-118.9821 46.95662, -118.9…
##  3 53001… Census Tr… DP04_01…      658   172 (((-119.3694 46.79559, -119.3…
##  4 53001… Census Tr… DP04_01…      681   128 (((-119.1791 46.83331, -119.1…
##  5 53001… Census Tr… DP04_01…      766   247 (((-119.1905 46.79951, -119.1…
##  6 53003… Census Tr… DP04_01…      770    44 (((-117.48 46.12199, -117.419…
##  7 53003… Census Tr… DP04_01…     1060   248 (((-117.4208 46.33866, -117.4…
##  8 53003… Census Tr… DP04_01…      658    85 (((-117.0722 46.42472, -117.0…
##  9 53003… Census Tr… DP04_01…      687    46 (((-117.0796 46.41444, -117.0…
## 10 53003… Census Tr… DP04_01…      673   113 (((-117.0608 46.40103, -117.0…
## # … with 2,282 more rows
```
…
