…
As you can see, working through this iterative process yields *"div+ .wikitable :nth-child(1)"*. We can now use this unique CSS selector to isolate the pre-IAAF table content from the rest of the HTML document. The core **rvest** function that we'll use to extract the table content is `html_element()`, before piping it on to `html_table()` to parse the HTML table into an R data frame.


```r
pre_iaaf = 
  m100 %>%
  html_element("div+ .wikitable :nth-child(1)") %>% ## select table element
  html_table()                                      ## convert to data frame

pre_iaaf
```

```
## # A tibble: 21 x 5
##     Time Athlete            Nationality    `Location of races`   Date           
##    <dbl> <chr>              <chr>          <chr>                 <chr>          
##  1  10.8 Luther Cary        United States  Paris, France         July 4, 1891   
##  2  10.8 Cecil Lee          United Kingdom Brussels, Belgium     September 25, …
##  3  10.8 Étienne De Ré      Belgium        Brussels, Belgium     August 4, 1893 
##  4  10.8 L. Atcherley       United Kingdom Frankfurt/Main, Germ… April 13, 1895 
##  5  10.8 Harry Beaton       United Kingdom Rotterdam, Netherlan… August 28, 1895
##  6  10.8 Harald Anderson-A… Sweden         Helsingborg, Sweden   August 9, 1896 
##  7  10.8 Isaac Westergren   Sweden         Gävle, Sweden         September 11, …
##  8  10.8 Isaac Westergren   Sweden         Gävle, Sweden         September 10, …
##  9  10.8 Frank Jarvis       United States  Paris, France         July 14, 1900  
## 10  10.8 Walter Tewksbury   United States  Paris, France         July 14, 1900  
## # … with 11 more rows
```
…
```r
# library(janitor) ## Already loaded
# library(lubridate) ## Already loaded
 
pre_iaaf =
  pre_iaaf %>%
  clean_names() %>%         ## fix the column names
  mutate(date = mdy(date))  ## convert string to date format

pre_iaaf
```

```
## # A tibble: 21 x 5
##     time athlete               nationality    location_of_races       date      
##    <dbl> <chr>                 <chr>          <chr>                   <date>    
##  1  10.8 Luther Cary           United States  Paris, France           1891-07-04
##  2  10.8 Cecil Lee             United Kingdom Brussels, Belgium       1892-09-25
##  3  10.8 Étienne De Ré         Belgium        Brussels, Belgium       1893-08-04
##  4  10.8 L. Atcherley          United Kingdom Frankfurt/Main, Germany 1895-04-13
##  5  10.8 Harry Beaton          United Kingdom Rotterdam, Netherlands  1895-08-28
##  6  10.8 Harald Anderson-Arbin Sweden         Helsingborg, Sweden     1896-08-09
##  7  10.8 Isaac Westergren      Sweden         Gävle, Sweden           1898-09-11
##  8  10.8 Isaac Westergren      Sweden         Gävle, Sweden           1899-09-10
##  9  10.8 Frank Jarvis          United States  Paris, France           1900-07-14
## 10  10.8 Walter Tewksbury      United States  Paris, France           1900-07-14
## # … with 11 more rows
```
…
As we did with the previous table, let's fix the column names and coerce the date string to a format that R understands.


```r
iaaf_76 =
  iaaf_76 %>%
  clean_names() %>%
  mutate(date = mdy(date)) 

iaaf_76
```

```
## # A tibble: 54 x 8
##     time wind   auto athlete     nationality location_of_race   date       ref  
##    <dbl> <chr> <dbl> <chr>       <chr>       <chr>              <date>     <chr>
##  1  10.6 ""     NA   Donald Lip… United Sta… Stockholm, Sweden  1912-07-06 [2]  
##  2  10.6 ""     NA   Jackson Sc… United Sta… Stockholm, Sweden  1920-09-16 [2]  
##  3  10.4 ""     NA   Charley Pa… United Sta… Redlands, USA      1921-04-23 [2]  
##  4  10.4 "0.0"  NA   Eddie Tolan United Sta… Stockholm, Sweden  1929-08-08 [2]  
##  5  10.4 ""     NA   Eddie Tolan United Sta… Copenhagen, Denma… 1929-08-25 [2]  
##  6  10.3 ""     NA   Percy Will… Canada      Toronto, Canada    1930-08-09 [2]  
##  7  10.3 "0.4"  10.4 Eddie Tolan United Sta… Los Angeles, USA   1932-08-01 [2]  
##  8  10.3 ""     NA   Ralph Metc… United Sta… Budapest, Hungary  1933-08-12 [2]  
##  9  10.3 ""     NA   Eulace Pea… United Sta… Oslo, Norway       1934-08-06 [2]  
## 10  10.3 ""     NA   Chris Berg… Netherlands Amsterdam, Nether… 1934-08-26 [2]  
## # … with 44 more rows
```
…
```r
iaaf =
  m100 %>%
  html_element("#mw-content-text > div > table:nth-child(19)") %>%
  html_table() %>%
  clean_names() %>%
  mutate(date = mdy(date))

iaaf
```

```
## # A tibble: 24 x 8
##     time wind   auto athlete nationality location_of_race date      
##    <dbl> <chr> <dbl> <chr>   <chr>       <chr>            <date>    
##  1 10.1  1.3      NA Bob Ha… United Sta… Tokyo, Japan     1964-10-15
##  2 10.0  0.8      NA Jim Hi… United Sta… Sacramento, USA  1968-06-20
##  3 10.0  2.0      NA Charle… United Sta… Mexico City, Me… 1968-10-13
##  4  9.95 0.3      NA Jim Hi… United Sta… Mexico City, Me… 1968-10-14
##  5  9.93 1.4      NA Calvin… United Sta… Colorado Spring… 1983-07-03
##  6  9.83 1.0      NA Ben Jo… Canada      Rome, Italy      1987-08-30
##  7  9.93 1.0      NA Carl L… United Sta… Rome, Italy      1987-08-30
##  8  9.93 1.1      NA Carl L… United Sta… Zürich, Switzer… 1988-08-17
##  9  9.79 1.1      NA Ben Jo… Canada      Seoul, South Ko… 1988-09-24
## 10  9.92 1.1      NA Carl L… United Sta… Seoul, South Ko… 1988-09-24
## # … with 14 more rows, and 1 more variable: notes_note_2 <chr>
```
…
```r
wr100 = 
  rbind(
    pre_iaaf %>% select(time, athlete, nationality, date) %>% mutate(era = "Pre-IAAF"),
    iaaf_76 %>% select(time, athlete, nationality, date) %>% mutate(era = "Pre-automatic"),
    iaaf %>% select(time, athlete, nationality, date) %>% mutate(era = "Modern")
    )

wr100
```

```
## # A tibble: 99 x 5
##     time athlete               nationality    date       era     
##    <dbl> <chr>                 <chr>          <date>     <chr>   
##  1  10.8 Luther Cary           United States  1891-07-04 Pre-IAAF
##  2  10.8 Cecil Lee             United Kingdom 1892-09-25 Pre-IAAF
##  3  10.8 Étienne De Ré         Belgium        1893-08-04 Pre-IAAF
##  4  10.8 L. Atcherley          United Kingdom 1895-04-13 Pre-IAAF
##  5  10.8 Harry Beaton          United Kingdom 1895-08-28 Pre-IAAF
##  6  10.8 Harald Anderson-Arbin Sweden         1896-08-09 Pre-IAAF
##  7  10.8 Isaac Westergren      Sweden         1898-09-11 Pre-IAAF
##  8  10.8 Isaac Westergren      Sweden         1899-09-10 Pre-IAAF
##  9  10.8 Frank Jarvis          United States  1900-07-14 Pre-IAAF
## 10  10.8 Walter Tewksbury      United States  1900-07-14 Pre-IAAF
## # … with 89 more rows
```
…
