Lecture 6: Webscraping: (1) Server-side and CSS
…
## [1] "list"

Hmmm It turns out this is actually still a list, so lets really convert it to a data frame. One way to do this is by using dplyrs bind_rows() function, which is great for coercing (multiple) lists into a data frame.3 I also want to make some ggplot figures further below, so Ill just go ahead and load the whole tidyverse.

## Convert list to data_frame
# pre_iaaf <- pre_iaaf[[1]] ## Would also work
library(tidyverse)

pre_iaaf <- 
  pre_iaaf %>%
  bind_rows() %>%
  as_tibble()
pre_iaaf

## # A tibble: 21 x 5
##     Time Athlete           Nationality   `Location of races`  Date         
##    <dbl> <chr>             <chr>         <chr>                <chr>        
##  1  10.8 Luther Cary       United States Paris, France        July 4, 1891 
##  2  10.8 Cecil Lee         United Kingd Brussels, Belgium    September 25
##  3  10.8 Etienne De Re     Belgium       Brussels, Belgium    August 4, 18
##  4  10.8 L. Atcherley      United Kingd Frankfurt/Main, Ger April 13, 18
##  5  10.8 Harry Beaton      United Kingd Rotterdam, Netherla August 28, 1
##  6  10.8 Harald Anderson- Sweden        Helsingborg, Sweden  August 9, 18
##  7  10.8 Isaac Westergren  Sweden        Gvle, Sweden        September 11
##  8  10.8 10.8              Sweden        Gvle, Sweden        September 10
##  9  10.8 Frank Jarvis      United States Paris, France        July 14, 1900
## 10  10.8 Walter Tewksbury  United States Paris, France        July 14, 1900
## #  with 11 more rows

Let fix the column names to get rid of spaces, etc. Im going to use the janitor packages clean_names(), which is expressly built for the purpose of cleaning object names. (How else could we have done this?)

library(janitor)

pre_iaaf <-
  pre_iaaf %>%
  clean_names()
pre_iaaf

## # A tibble: 21 x 5
##     time athlete           nationality   location_of_races    date         
##    <dbl> <chr>             <chr>         <chr>                <chr>        
##  1  10.8 Luther Cary       United States Paris, France        July 4, 1891 
##  2  10.8 Cecil Lee         United Kingd Brussels, Belgium    September 25
##  3  10.8 Etienne De Re     Belgium       Brussels, Belgium    August 4, 18
##  4  10.8 L. Atcherley      United Kingd Frankfurt/Main, Ger April 13, 18
##  5  10.8 Harry Beaton      United Kingd Rotterdam, Netherla August 28, 1
##  6  10.8 Harald Anderson- Sweden        Helsingborg, Sweden  August 9, 18
##  7  10.8 Isaac Westergren  Sweden        Gvle, Sweden        September 11
##  8  10.8 10.8              Sweden        Gvle, Sweden        September 10
##  9  10.8 Frank Jarvis      United States Paris, France        July 14, 1900
## 10  10.8 Walter Tewksbury  United States Paris, France        July 14, 1900
## #  with 11 more rows
…
## Warning in ifelse(is.na(as.numeric(athlete)), athlete, c(NA, "Luther
## Cary", : NAs introduced by coercion

Lastly, lets fix the date column so that R recognises that the character string for what it actually is.

library(lubridate)

pre_iaaf <-
  pre_iaaf %>%
  mutate(date = mdy(date))
pre_iaaf

## # A tibble: 21 x 5
##     time athlete             nationality   location_of_races     date      
##    <dbl> <chr>               <chr>         <chr>                 <date>    
##  1  10.8 Luther Cary         United States Paris, France         1891-07-04
##  2  10.8 Cecil Lee           United Kingd Brussels, Belgium     1892-09-25
##  3  10.8 Etienne De Re       Belgium       Brussels, Belgium     1893-08-04
##  4  10.8 L. Atcherley        United Kingd Frankfurt/Main, Germ 1895-04-13
##  5  10.8 Harry Beaton        United Kingd Rotterdam, Netherlan 1895-08-28
##  6  10.8 Harald Anderson-Ar Sweden        Helsingborg, Sweden   1896-08-09
##  7  10.8 Isaac Westergren    Sweden        Gvle, Sweden         1898-09-11
##  8  10.8 Isaac Westergren    Sweden        Gvle, Sweden         1899-09-10
##  9  10.8 Frank Jarvis        United States Paris, France         1900-07-14
## 10  10.8 Walter Tewksbury    United States Paris, France         1900-07-14
## #  with 11 more rows
…
We can try to fix these cases by using the previous value. Lets test it first:

iaaf_76 %>%
  mutate(date = ifelse(is.na(date), lag(date), date))

## # A tibble: 54 x 8
##     time  wind  auto athlete    nationality  location_of_race    date ref  
##    <dbl> <dbl> <dbl> <chr>      <chr>        <chr>              <dbl> <chr>
##  1  10.6  NA    NA   Donald Li United Stat Stockholm, Sweden -20998 [2]  
##  2  10.6  NA    NA   Jackson S United Stat Stockholm, Sweden -18004 [2]  
##  3  10.4  NA    NA   Charley P United Stat Redlands, USA     -17785 [2]  
##  4  10.4   0    NA   Eddie Tol United Stat Stockholm, Sweden -14756 [2]  
##  5  10.4  NA    NA   Eddie Tol United Stat Copenhagen, Denm -14739 [2]  
##  6  10.3  NA    NA   Percy Wil Canada       Toronto, Ontario -14390 [2]  
##  7  10.3   0.4  10.4 Eddie Tol United Stat Los Angeles, USA  -13667 [2]  
##  8  10.3  NA    NA   Eddie Tol Ralph Metca Budapest, Hungary -13291 [2]  
##  9  10.3  NA    NA   Eddie Tol Eulace Peac Oslo, Norway      -12932 [2]  
## 10  10.3  NA    NA   Chris Ber Netherlands  Amsterdam, Nethe -12912 [2]  
## #  with 44 more rows

Whoops! Looks like all of our dates are getting converted to numbers. The reason (if you did a bit of Googling) actually has to do with the base ifelse() function. In this case, its better to use the tidyverse equivalent, i.e.if_else().

iaaf_76 <-
  iaaf_76 %>%
  mutate(date = if_else(is.na(date), lag(date), date))
iaaf_76

## # A tibble: 54 x 8
##     time  wind  auto athlete  nationality location_of_race date       ref  
##    <dbl> <dbl> <dbl> <chr>    <chr>       <chr>            <date>     <chr>
##  1  10.6  NA    NA   Donald  United Sta Stockholm, Swed 1912-07-06 [2]  
##  2  10.6  NA    NA   Jackson United Sta Stockholm, Swed 1920-09-16 [2]  
##  3  10.4  NA    NA   Charley United Sta Redlands, USA    1921-04-23 [2]  
##  4  10.4   0    NA   Eddie T United Sta Stockholm, Swed 1929-08-08 [2]  
##  5  10.4  NA    NA   Eddie T United Sta Copenhagen, Den 1929-08-25 [2]  
##  6  10.3  NA    NA   Percy W Canada      Toronto, Ontari 1930-08-09 [2]  
##  7  10.3   0.4  10.4 Eddie T United Sta Los Angeles, USA 1932-08-01 [2]  
##  8  10.3  NA    NA   Eddie T Ralph Metc Budapest, Hunga 1933-08-12 [2]  
##  9  10.3  NA    NA   Eddie T Eulace Pea Oslo, Norway     1934-08-06 [2]  
## 10  10.3  NA    NA   Chris B Netherlands Amsterdam, Neth 1934-08-26 [2]  
## #  with 44 more rows
…
Combined eras

Lets bind all these separate eras into a single data frame. Ill use dplyr:: bind_rows() again and select in the common variables only. Ill also add a new column describing which era an observation falls under.

wr100 <- 
  bind_rows(
    pre_iaaf %>% select(time, athlete, nationality:date) %>% mutate(era = "Pre-IAAF"),
    iaaf_76 %>% select(time, athlete, nationality:date) %>% mutate(era = "Pre-automatic"),
    iaaf %>% select(time, athlete, nationality:date) %>% mutate(era = "Modern")
  )
wr100

## # A tibble: 99 x 7
##     time athlete nationality location_of_rac date       era  
##    <dbl> <chr>   <chr>       <chr>            <date>     <chr>
##  1  10.8 Luther United Sta Paris, France    1891-07-04 Pre-
##  2  10.8 Cecil  United Kin Brussels, Belgi 1892-09-25 Pre-
##  3  10.8 Etienn Belgium     Brussels, Belgi 1893-08-04 Pre-
##  4  10.8 L. Atc United Kin Frankfurt/Main, 1895-04-13 Pre-
##  5  10.8 Harry  United Kin Rotterdam, Neth 1895-08-28 Pre-
##  6  10.8 Harald Sweden      Helsingborg, Sw 1896-08-09 Pre-
##  7  10.8 Isaac  Sweden      Gvle, Sweden    1898-09-11 Pre-
##  8  10.8 Isaac  Sweden      Gvle, Sweden    1899-09-10 Pre-
##  9  10.8 Frank  United Sta Paris, France    1900-07-14 Pre-
## 10  10.8 Walter United Sta Paris, France    1900-07-14 Pre-
## #  with 89 more rows, and 1 more variable: location_of_race <chr>
…
